job-dsl:1.53
matrix-auth:2.1
cloudbees-folder:6.2.1
git:3.6.0
timestamper:1.8.8
ownership:0.10.0
job-restrictions:0.6
role-strategy:2.6.1
mailer:1.20
authorize-project:1.3.0
security-inspector:0.4
monitoring:1.69.1
locale:1.2
blueocean:1.3.0
junit:1.21
checkstyle:3.49
findbugs:4.71
